<svg xmlns="http://www.w3.org/2000/svg" viewBox="0 0 18 18">
  <defs>
    <style>
      .cls-1 {
        fill: none;
      }

      .cls-2 {
        fill: #ffa000;
      }
    </style>
  </defs>
  <g id="Group_380" data-name="Group 380" transform="translate(-6334 -9530)">
    <rect id="Rectangle_427" data-name="Rectangle 427" class="cls-1" width="18" height="18" transform="translate(6334 9530)"/>
    <g id="user-silhouette_1_" data-name="user-silhouette (1)" transform="translate(6334 9528.084)">
      <g id="Group_368" data-name="Group 368" transform="translate(-0.001 1.916)">
        <path id="Path_1313" data-name="Path 1313" class="cls-2" d="M116.879,11.363c2.229,0,4.036-2.115,4.036-4.724,0-3.618-1.807-4.724-4.036-4.724s-4.036,1.106-4.036,4.724C112.843,9.248,114.65,11.363,116.879,11.363Z" transform="translate(-107.879 -1.916)"/>
        <path id="Path_1314" data-name="Path 1314" class="cls-2" d="M17.911,228.147l-2.036-4.587a1.022,1.022,0,0,0-.46-.49l-3.16-1.645a.2.2,0,0,0-.217.018,4.985,4.985,0,0,1-6.078,0,.2.2,0,0,0-.217-.018l-3.16,1.645a1.021,1.021,0,0,0-.46.49L.087,228.147a1.018,1.018,0,0,0,.93,1.431H16.981a1.018,1.018,0,0,0,.931-1.431Z" transform="translate(0.001 -211.747)"/>
      </g>
    </g>
  </g>
</svg>
